{
    "data": {
        "curPage": 2,
        "datas": [
            {
                "adminAdd": false,
                "apkLink": "",
                "audit": 1,
                "author": "张鸿洋",
                "canEdit": false,
                "chapterId": 543,
                "chapterName": "Android技术周报",
                "collect": false,
                "courseId": 13,
                "desc": "",
                "descMd": "",
                "envelopePic": "",
                "fresh": false,
                "host": "",
                "id": 30190,
                "isAdminAdd": false,
                "link": "https://www.wanandroid.com/blog/show/3786",
                "niceDate": "2025-06-21 00:00",
                "niceShareDate": "2025-06-21 00:10",
                "origin": "",
                "prefix": "",
                "projectLink": "",
                "publishTime": 1750435200000,
                "realSuperChapterId": 542,
                "selfVisible": 0,
                "shareDate": 1750435800000,
                "shareUser": "",
                "superChapterId": 543,
                "superChapterName": "技术周报",
                "tags": [],
                "title": "Android 技术周刊 （2025-06-14 ~ 2025-06-21）",
                "type": 0,
                "userId": -1,
                "visible": 1,
                "zan": 0
            },
            {
                "adminAdd": false,
                "apkLink": "",
                "audit": 1,
                "author": "",
                "canEdit": false,
                "chapterId": 502,
                "chapterName": "自助",
                "collect": false,
                "courseId": 13,
                "desc": "",
                "descMd": "",
                "envelopePic": "",
                "fresh": false,
                "host": "",
                "id": 30189,
                "isAdminAdd": false,
                "link": "https://mp.weixin.qq.com/s/sdpetUEb8_CScn_4OZPWgA",
                "niceDate": "2025-06-20 18:03",
                "niceShareDate": "2025-06-20 18:03",
                "origin": "",
                "prefix": "",
                "projectLink": "",
                "publishTime": 1750413815000,
                "realSuperChapterId": 493,
                "selfVisible": 0,
                "shareDate": 1750413815000,
                "shareUser": "JsonChao",
                "superChapterId": 494,
                "superChapterName": "广场Tab",
                "tags": [],
                "title": "大厂失业后，我用cursor开发了第二款海外产品",
                "type": 0,
                "userId": 611,
                "visible": 1,
                "zan": 0
            },
            {
                "adminAdd": false,
                "apkLink": "",
                "audit": 1,
                "author": "",
                "canEdit": false,
                "chapterId": 502,
                "chapterName": "自助",
                "collect": false,
                "courseId": 13,
                "desc": "",
                "descMd": "",
                "envelopePic": "",
                "fresh": false,
                "host": "",
                "id": 30172,
                "isAdminAdd": false,
                "link": "https://juejin.cn/post/7517567186632065087",
                "niceDate": "2025-06-20 14:09",
                "niceShareDate": "2025-06-20 14:09",
                "origin": "",
                "prefix": "",
                "projectLink": "",
                "publishTime": 1750399761000,
                "realSuperChapterId": 493,
                "selfVisible": 0,
                "shareDate": 1750399761000,
                "shareUser": "wgllss",
                "superChapterId": 494,
                "superChapterName": "广场Tab",
                "tags": [],
                "title": "Kotlin + Flow 实现责任链模式的4种案例",
                "type": 0,
                "userId": 161755,
                "visible": 1,
                "zan": 0
            },
            {
                "adminAdd": false,
                "apkLink": "",
                "audit": 1,
                "author": "鸿洋",
                "canEdit": false,
                "chapterId": 408,
                "chapterName": "鸿洋",
                "collect": false,
                "courseId": 13,
                "desc": "",
                "descMd": "",
                "envelopePic": "",
                "fresh": false,
                "host": "",
                "id": 30185,
                "isAdminAdd": false,
                "link": "https://mp.weixin.qq.com/s/i9oDaEt9dfdwG4Z5wEicZg",
                "niceDate": "2025-06-20 00:00",
                "niceShareDate": "2025-06-20 16:36",
                "origin": "",
                "prefix": "",
                "projectLink": "",
                "publishTime": 1750348800000,
                "realSuperChapterId": 407,
                "selfVisible": 0,
                "shareDate": 1750408567000,
                "shareUser": "",
                "superChapterId": 408,
                "superChapterName": "公众号",
                "tags": [
                    {
                        "name": "公众号",
                        "url": "/wxarticle/list/408/1"
                    }
                ],
                "title": "聊聊 Glide | 不看源码，只聊设计",
                "type": 0,
                "userId": -1,
                "visible": 1,
                "zan": 0
            },
            {
                "adminAdd": false,
                "apkLink": "",
                "audit": 1,
                "author": "郭霖",
                "canEdit": false,
                "chapterId": 409,
                "chapterName": "郭霖",
                "collect": false,
                "courseId": 13,
                "desc": "",
                "descMd": "",
                "envelopePic": "",
                "fresh": false,
                "host": "",
                "id": 30188,
                "isAdminAdd": false,
                "link": "https://mp.weixin.qq.com/s/Ycoxad2rm2jkmQJKhrjTQQ",
                "niceDate": "2025-06-20 00:00",
                "niceShareDate": "2025-06-20 16:42",
                "origin": "",
                "prefix": "",
                "projectLink": "",
                "publishTime": 1750348800000,
                "realSuperChapterId": 407,
                "selfVisible": 0,
                "shareDate": 1750408961000,
                "shareUser": "",
                "superChapterId": 408,
                "superChapterName": "公众号",
                "tags": [
                    {
                        "name": "公众号",
                        "url": "/wxarticle/list/409/1"
                    }
                ],
                "title": "Android 16新特性和行为变更一览",
                "type": 0,
                "userId": -1,
                "visible": 1,
                "zan": 0
            },
            {
                "adminAdd": false,
                "apkLink": "",
                "audit": 1,
                "author": "",
                "canEdit": false,
                "chapterId": 502,
                "chapterName": "自助",
                "collect": false,
                "courseId": 13,
                "desc": "",
                "descMd": "",
                "envelopePic": "",
                "fresh": false,
                "host": "",
                "id": 30168,
                "isAdminAdd": false,
                "link": "https://juejin.cn/post/7517120006044663819",
                "niceDate": "2025-06-19 09:29",
                "niceShareDate": "2025-06-19 09:29",
                "origin": "",
                "prefix": "",
                "projectLink": "",
                "publishTime": 1750296565000,
                "realSuperChapterId": 493,
                "selfVisible": 0,
                "shareDate": 1750296565000,
                "shareUser": "wgllss",
                "superChapterId": 494,
                "superChapterName": "广场Tab",
                "tags": [],
                "title": "大型异步下载器(二)：基于kotlin+Compose+协程+Flow+Channel+ OKhttp 实现多文件异步同时分片断点续传下载",
                "type": 0,
                "userId": 161755,
                "visible": 1,
                "zan": 0
            },
            {
                "adminAdd": false,
                "apkLink": "",
                "audit": 1,
                "author": "鸿洋",
                "canEdit": false,
                "chapterId": 408,
                "chapterName": "鸿洋",
                "collect": false,
                "courseId": 13,
                "desc": "",
                "descMd": "",
                "envelopePic": "",
                "fresh": false,
                "host": "",
                "id": 30184,
                "isAdminAdd": false,
                "link": "https://mp.weixin.qq.com/s/-jQLqw-wL4A0O_ubPx89Gw",
                "niceDate": "2025-06-19 00:00",
                "niceShareDate": "2025-06-20 16:35",
                "origin": "",
                "prefix": "",
                "projectLink": "",
                "publishTime": 1750262400000,
                "realSuperChapterId": 407,
                "selfVisible": 0,
                "shareDate": 1750408550000,
                "shareUser": "",
                "superChapterId": 408,
                "superChapterName": "公众号",
                "tags": [
                    {
                        "name": "公众号",
                        "url": "/wxarticle/list/408/1"
                    }
                ],
                "title": "Flutter 小技巧之：实现 iOS 26 的 &ldquo;液态玻璃&rdquo;",
                "type": 0,
                "userId": -1,
                "visible": 1,
                "zan": 0
            },
            {
                "adminAdd": false,
                "apkLink": "",
                "audit": 1,
                "author": "",
                "canEdit": false,
                "chapterId": 502,
                "chapterName": "自助",
                "collect": false,
                "courseId": 13,
                "desc": "",
                "descMd": "",
                "envelopePic": "",
                "fresh": false,
                "host": "",
                "id": 30167,
                "isAdminAdd": false,
                "link": "https://blog.csdn.net/u013290250/article/details/148684702",
                "niceDate": "2025-06-17 23:09",
                "niceShareDate": "2025-06-17 23:09",
                "origin": "",
                "prefix": "",
                "projectLink": "",
                "publishTime": 1750172975000,
                "realSuperChapterId": 493,
                "selfVisible": 0,
                "shareDate": 1750172975000,
                "shareUser": "duangduang",
                "superChapterId": 494,
                "superChapterName": "广场Tab",
                "tags": [],
                "title": "Flutter&mdash;&mdash;数据库Drift开发详细教程(七)",
                "type": 0,
                "userId": 149113,
                "visible": 1,
                "zan": 0
            },
            {
                "adminAdd": false,
                "apkLink": "",
                "audit": 1,
                "author": "",
                "canEdit": false,
                "chapterId": 502,
                "chapterName": "自助",
                "collect": false,
                "courseId": 13,
                "desc": "",
                "descMd": "",
                "envelopePic": "",
                "fresh": false,
                "host": "",
                "id": 30166,
                "isAdminAdd": false,
                "link": "https://blog.csdn.net/u013290250/article/details/147990779",
                "niceDate": "2025-06-17 23:09",
                "niceShareDate": "2025-06-17 23:09",
                "origin": "",
                "prefix": "",
                "projectLink": "",
                "publishTime": 1750172954000,
                "realSuperChapterId": 493,
                "selfVisible": 0,
                "shareDate": 1750172954000,
                "shareUser": "duangduang",
                "superChapterId": 494,
                "superChapterName": "广场Tab",
                "tags": [],
                "title": "Flutter&mdash;&mdash;数据库Drift开发详细教程(六)",
                "type": 0,
                "userId": 149113,
                "visible": 1,
                "zan": 0
            },
            {
                "adminAdd": false,
                "apkLink": "",
                "audit": 1,
                "author": "鸿洋",
                "canEdit": false,
                "chapterId": 408,
                "chapterName": "鸿洋",
                "collect": false,
                "courseId": 13,
                "desc": "",
                "descMd": "",
                "envelopePic": "",
                "fresh": false,
                "host": "",
                "id": 30183,
                "isAdminAdd": false,
                "link": "https://mp.weixin.qq.com/s/SxJUXedLfg9a-ysh0D6htQ",
                "niceDate": "2025-06-17 00:00",
                "niceShareDate": "2025-06-20 16:35",
                "origin": "",
                "prefix": "",
                "projectLink": "",
                "publishTime": 1750089600000,
                "realSuperChapterId": 407,
                "selfVisible": 0,
                "shareDate": 1750408537000,
                "shareUser": "",
                "superChapterId": 408,
                "superChapterName": "公众号",
                "tags": [
                    {
                        "name": "公众号",
                        "url": "/wxarticle/list/408/1"
                    }
                ],
                "title": "Android&times;AI 技术刊#第11期&mdash;&mdash;都是Android技术文",
                "type": 0,
                "userId": -1,
                "visible": 1,
                "zan": 0
            },
            {
                "adminAdd": false,
                "apkLink": "",
                "audit": 1,
                "author": "",
                "canEdit": false,
                "chapterId": 502,
                "chapterName": "自助",
                "collect": false,
                "courseId": 13,
                "desc": "",
                "descMd": "",
                "envelopePic": "",
                "fresh": false,
                "host": "",
                "id": 30157,
                "isAdminAdd": false,
                "link": "https://juejin.cn/post/7515377033869197322",
                "niceDate": "2025-06-14 16:36",
                "niceShareDate": "2025-06-14 16:32",
                "origin": "",
                "prefix": "",
                "projectLink": "",
                "publishTime": 1749890207000,
                "realSuperChapterId": 493,
                "selfVisible": 0,
                "shareDate": 1749889932000,
                "shareUser": "鸿洋",
                "superChapterId": 494,
                "superChapterName": "广场Tab",
                "tags": [],
                "title": "Jetpack Compose 入门：从默认工程到实战开发",
                "type": 0,
                "userId": 2,
                "visible": 1,
                "zan": 0
            },
            {
                "adminAdd": false,
                "apkLink": "",
                "audit": 1,
                "author": "",
                "canEdit": false,
                "chapterId": 502,
                "chapterName": "自助",
                "collect": false,
                "courseId": 13,
                "desc": "",
                "descMd": "",
                "envelopePic": "",
                "fresh": false,
                "host": "",
                "id": 30158,
                "isAdminAdd": false,
                "link": "https://juejin.cn/post/7515396214881992756",
                "niceDate": "2025-06-14 16:36",
                "niceShareDate": "2025-06-14 16:32",
                "origin": "",
                "prefix": "",
                "projectLink": "",
                "publishTime": 1749890205000,
                "realSuperChapterId": 493,
                "selfVisible": 0,
                "shareDate": 1749889976000,
                "shareUser": "鸿洋",
                "superChapterId": 494,
                "superChapterName": "广场Tab",
                "tags": [],
                "title": "深入浅出Android SurfaceView：高性能绘制",
                "type": 0,
                "userId": 2,
                "visible": 1,
                "zan": 0
            },
            {
                "adminAdd": false,
                "apkLink": "",
                "audit": 1,
                "author": "",
                "canEdit": false,
                "chapterId": 502,
                "chapterName": "自助",
                "collect": false,
                "courseId": 13,
                "desc": "",
                "descMd": "",
                "envelopePic": "",
                "fresh": false,
                "host": "",
                "id": 30159,
                "isAdminAdd": false,
                "link": "https://juejin.cn/post/7515052989888823305",
                "niceDate": "2025-06-14 16:36",
                "niceShareDate": "2025-06-14 16:34",
                "origin": "",
                "prefix": "",
                "projectLink": "",
                "publishTime": 1749890202000,
                "realSuperChapterId": 493,
                "selfVisible": 0,
                "shareDate": 1749890047000,
                "shareUser": "鸿洋",
                "superChapterId": 494,
                "superChapterName": "广场Tab",
                "tags": [],
                "title": "Android Runtime即时编译触发条件与阈值深度解析",
                "type": 0,
                "userId": 2,
                "visible": 1,
                "zan": 0
            },
            {
                "adminAdd": false,
                "apkLink": "",
                "audit": 1,
                "author": "",
                "canEdit": false,
                "chapterId": 502,
                "chapterName": "自助",
                "collect": false,
                "courseId": 13,
                "desc": "",
                "descMd": "",
                "envelopePic": "",
                "fresh": false,
                "host": "",
                "id": 30160,
                "isAdminAdd": false,
                "link": "https://juejin.cn/post/7514684482998386742",
                "niceDate": "2025-06-14 16:36",
                "niceShareDate": "2025-06-14 16:35",
                "origin": "",
                "prefix": "",
                "projectLink": "",
                "publishTime": 1749890200000,
                "realSuperChapterId": 493,
                "selfVisible": 0,
                "shareDate": 1749890106000,
                "shareUser": "鸿洋",
                "superChapterId": 494,
                "superChapterName": "广场Tab",
                "tags": [],
                "title": "Android 内存管家 LMK 的一天：从贴标签到赶进程的故事",
                "type": 0,
                "userId": 2,
                "visible": 1,
                "zan": 0
            },
            {
                "adminAdd": false,
                "apkLink": "",
                "audit": 1,
                "author": "",
                "canEdit": false,
                "chapterId": 502,
                "chapterName": "自助",
                "collect": false,
                "courseId": 13,
                "desc": "",
                "descMd": "",
                "envelopePic": "",
                "fresh": false,
                "host": "",
                "id": 30161,
                "isAdminAdd": false,
                "link": "https://juejin.cn/post/7514684482998304822",
                "niceDate": "2025-06-14 16:36",
                "niceShareDate": "2025-06-14 16:35",
                "origin": "",
                "prefix": "",
                "projectLink": "",
                "publishTime": 1749890199000,
                "realSuperChapterId": 493,
                "selfVisible": 0,
                "shareDate": 1749890133000,
                "shareUser": "鸿洋",
                "superChapterId": 494,
                "superChapterName": "广场Tab",
                "tags": [],
                "title": "Android ANR 信息收集的 &quot;破案&quot; 故事：系统如何追踪卡死现场",
                "type": 0,
                "userId": 2,
                "visible": 1,
                "zan": 0
            },
            {
                "adminAdd": false,
                "apkLink": "",
                "audit": 1,
                "author": "",
                "canEdit": false,
                "chapterId": 502,
                "chapterName": "自助",
                "collect": false,
                "courseId": 13,
                "desc": "",
                "descMd": "",
                "envelopePic": "",
                "fresh": false,
                "host": "",
                "id": 30163,
                "isAdminAdd": false,
                "link": "https://juejin.cn/post/7513962242435399720",
                "niceDate": "2025-06-14 16:36",
                "niceShareDate": "2025-06-14 16:36",
                "origin": "",
                "prefix": "",
                "projectLink": "",
                "publishTime": 1749890197000,
                "realSuperChapterId": 493,
                "selfVisible": 0,
                "shareDate": 1749890175000,
                "shareUser": "鸿洋",
                "superChapterId": 494,
                "superChapterName": "广场Tab",
                "tags": [],
                "title": "学习笔记，关于NDK/JNI的简介与实战",
                "type": 0,
                "userId": 2,
                "visible": 1,
                "zan": 0
            },
            {
                "adminAdd": false,
                "apkLink": "",
                "audit": 1,
                "author": "张鸿洋",
                "canEdit": false,
                "chapterId": 543,
                "chapterName": "Android技术周报",
                "collect": false,
                "courseId": 13,
                "desc": "",
                "descMd": "",
                "envelopePic": "",
                "fresh": false,
                "host": "",
                "id": 30155,
                "isAdminAdd": false,
                "link": "https://www.wanandroid.com/blog/show/3784",
                "niceDate": "2025-06-14 00:00",
                "niceShareDate": "2025-06-14 00:10",
                "origin": "",
                "prefix": "",
                "projectLink": "",
                "publishTime": 1749830400000,
                "realSuperChapterId": 542,
                "selfVisible": 0,
                "shareDate": 1749831000000,
                "shareUser": "",
                "superChapterId": 543,
                "superChapterName": "技术周报",
                "tags": [],
                "title": "Android 技术周刊 （2025-06-07 ~ 2025-06-14）",
                "type": 0,
                "userId": -1,
                "visible": 1,
                "zan": 0
            },
            {
                "adminAdd": false,
                "apkLink": "",
                "audit": 1,
                "author": "",
                "canEdit": false,
                "chapterId": 502,
                "chapterName": "自助",
                "collect": false,
                "courseId": 13,
                "desc": "",
                "descMd": "",
                "envelopePic": "",
                "fresh": false,
                "host": "",
                "id": 30151,
                "isAdminAdd": false,
                "link": "https://juejin.cn/post/7514590876863135795",
                "niceDate": "2025-06-12 11:01",
                "niceShareDate": "2025-06-12 11:01",
                "origin": "",
                "prefix": "",
                "projectLink": "",
                "publishTime": 1749697280000,
                "realSuperChapterId": 493,
                "selfVisible": 0,
                "shareDate": 1749697280000,
                "shareUser": "wgllss",
                "superChapterId": 494,
                "superChapterName": "广场Tab",
                "tags": [],
                "title": "大型异步下载器：基于kotlin+Compose+协程+Flow+Channel实现多文件异步同时分片断点续传下载",
                "type": 0,
                "userId": 161755,
                "visible": 1,
                "zan": 0
            }
        ],
        "offset": 20,
        "over": false,
        "pageCount": 807,
        "size": 20,
        "total": 16135
    },
    "errorCode": 0,
    "errorMsg": ""
}