{
	"data": {
		"curPage": 1,
		"datas": [
			{
				"adminAdd": false,
				"apkLink": "",
				"audit": 1,
				"author": "",
				"canEdit": false,
				"chapterId": 502,
				"chapterName": "自助",
				"collect": false,
				"courseId": 13,
				"desc": "",
				"descMd": "",
				"envelopePic": "",
				"fresh": false,
				"host": "",
				"id": 29757,
				"isAdminAdd": false,
				"link": "https://juejin.cn/post/7480464724096057381",
				"niceDate": "2025-03-25 09:08",
				"niceShareDate": "2025-03-25 09:08",
				"origin": "",
				"prefix": "",
				"projectLink": "",
				"publishTime": 1742864929000,
				"realSuperChapterId": 493,
				"selfVisible": 0,
				"shareDate": 1742864929000,
				"shareUser": "wgllss",
				"superChapterId": 494,
				"superChapterName": "广场Tab",
				"tags": [],
				"title": "金三银四，<em class='highlight'>面试</em>真经应该准备什么，可能适用绝大部分人",
				"type": 0,
				"userId": 161755,
				"visible": 1,
				"zan": 0
			},
			{
				"adminAdd": false,
				"apkLink": "",
				"audit": 1,
				"author": "",
				"canEdit": false,
				"chapterId": 494,
				"chapterName": "广场",
				"collect": false,
				"courseId": 13,
				"desc": "",
				"descMd": "",
				"envelopePic": "",
				"fresh": false,
				"host": "",
				"id": 29511,
				"isAdminAdd": false,
				"link": "https://juejin.cn/post/7476850354795118629",
				"niceDate": "2025-03-03 08:12",
				"niceShareDate": "2025-03-03 08:12",
				"origin": "",
				"prefix": "",
				"projectLink": "",
				"publishTime": 1740960733000,
				"realSuperChapterId": 493,
				"selfVisible": 0,
				"shareDate": 1740960733000,
				"shareUser": "goweii",
				"superChapterId": 494,
				"superChapterName": "广场Tab",
				"tags": [],
				"title": "Android Framework <em class='highlight'>面试</em>系列（五）WindowWindow 是什么 Window 是 Android 中",
				"type": 0,
				"userId": 20382,
				"visible": 0,
				"zan": 0
			},
			{
				"adminAdd": false,
				"apkLink": "",
				"audit": 1,
				"author": "",
				"canEdit": false,
				"chapterId": 494,
				"chapterName": "广场",
				"collect": false,
				"courseId": 13,
				"desc": "",
				"descMd": "",
				"envelopePic": "",
				"fresh": false,
				"host": "",
				"id": 29070,
				"isAdminAdd": false,
				"link": "https://juejin.cn/post/7426213075726565414",
				"niceDate": "2024-10-18 08:34",
				"niceShareDate": "2024-10-18 08:34",
				"origin": "",
				"prefix": "",
				"projectLink": "",
				"publishTime": 1729211657000,
				"realSuperChapterId": 493,
				"selfVisible": 0,
				"shareDate": 1729211657000,
				"shareUser": "goweii",
				"superChapterId": 494,
				"superChapterName": "广场Tab",
				"tags": [],
				"title": "Android经典<em class='highlight'>面试</em>题笔记之JVM内存管理剖析JVM class文件通过类加载器加载到运行时数据区，运行时数据区又分为",
				"type": 0,
				"userId": 20382,
				"visible": 0,
				"zan": 0
			},
			{
				"adminAdd": false,
				"apkLink": "",
				"audit": 1,
				"author": "鸿洋",
				"canEdit": false,
				"chapterId": 408,
				"chapterName": "鸿洋",
				"collect": false,
				"courseId": 13,
				"desc": "",
				"descMd": "",
				"envelopePic": "",
				"fresh": false,
				"host": "",
				"id": 28970,
				"isAdminAdd": false,
				"link": "https://mp.weixin.qq.com/s/TPwnOtd1xfXRvIV0voWnRQ",
				"niceDate": "2024-09-24 00:00",
				"niceShareDate": "2024-09-26 09:11",
				"origin": "",
				"prefix": "",
				"projectLink": "",
				"publishTime": 1727107200000,
				"realSuperChapterId": 407,
				"selfVisible": 0,
				"shareDate": 1727313119000,
				"shareUser": "",
				"superChapterId": 408,
				"superChapterName": "公众号",
				"tags": [
					{
						"name": "公众号",
						"url": "/wxarticle/list/408/1"
					}
				],
				"title": "<em class='highlight'>面试</em>官：你对插件化有什么了解？",
				"type": 0,
				"userId": -1,
				"visible": 1,
				"zan": 0
			},
			{
				"adminAdd": false,
				"apkLink": "",
				"audit": 1,
				"author": "鸿洋",
				"canEdit": false,
				"chapterId": 408,
				"chapterName": "鸿洋",
				"collect": false,
				"courseId": 13,
				"desc": "",
				"descMd": "",
				"envelopePic": "",
				"fresh": false,
				"host": "",
				"id": 28921,
				"isAdminAdd": false,
				"link": "https://mp.weixin.qq.com/s/-TyerBZWSGj6KrAQ7iQ4Fg",
				"niceDate": "2024-09-05 00:00",
				"niceShareDate": "2024-09-10 09:32",
				"origin": "",
				"prefix": "",
				"projectLink": "",
				"publishTime": 1725465600000,
				"realSuperChapterId": 407,
				"selfVisible": 0,
				"shareDate": 1725931971000,
				"shareUser": "",
				"superChapterId": 408,
				"superChapterName": "公众号",
				"tags": [
					{
						"name": "公众号",
						"url": "/wxarticle/list/408/1"
					}
				],
				"title": "<em class='highlight'>面试</em>题：为什么使用 Bundle 而不使用 HashMap",
				"type": 0,
				"userId": -1,
				"visible": 1,
				"zan": 0
			},
			{
				"adminAdd": false,
				"apkLink": "",
				"audit": 1,
				"author": "郭霖",
				"canEdit": false,
				"chapterId": 409,
				"chapterName": "郭霖",
				"collect": false,
				"courseId": 13,
				"desc": "",
				"descMd": "",
				"envelopePic": "",
				"fresh": false,
				"host": "",
				"id": 28725,
				"isAdminAdd": false,
				"link": "https://mp.weixin.qq.com/s/QmikshYOUdmSovU_GwvCZg",
				"niceDate": "2024-07-19 00:00",
				"niceShareDate": "2024-07-23 09:27",
				"origin": "",
				"prefix": "",
				"projectLink": "",
				"publishTime": 1721318400000,
				"realSuperChapterId": 407,
				"selfVisible": 0,
				"shareDate": 1721698035000,
				"shareUser": "",
				"superChapterId": 408,
				"superChapterName": "公众号",
				"tags": [
					{
						"name": "公众号",
						"url": "/wxarticle/list/409/1"
					}
				],
				"title": "Jetpack-ViewModel（<em class='highlight'>面试</em>深度起来）",
				"type": 0,
				"userId": -1,
				"visible": 1,
				"zan": 0
			},
			{
				"adminAdd": false,
				"apkLink": "",
				"audit": 1,
				"author": "郭霖",
				"canEdit": false,
				"chapterId": 409,
				"chapterName": "郭霖",
				"collect": false,
				"courseId": 13,
				"desc": "",
				"descMd": "",
				"envelopePic": "",
				"fresh": false,
				"host": "",
				"id": 28582,
				"isAdminAdd": false,
				"link": "https://mp.weixin.qq.com/s/6FDMxrIDlDbI7NXEmBSezQ",
				"niceDate": "2024-06-21 00:00",
				"niceShareDate": "2024-06-24 09:20",
				"origin": "",
				"prefix": "",
				"projectLink": "",
				"publishTime": 1718899200000,
				"realSuperChapterId": 407,
				"selfVisible": 0,
				"shareDate": 1719192042000,
				"shareUser": "",
				"superChapterId": 408,
				"superChapterName": "公众号",
				"tags": [
					{
						"name": "公众号",
						"url": "/wxarticle/list/409/1"
					}
				],
				"title": "Jetpack ViewModel (源码分析) <em class='highlight'>面试</em>",
				"type": 0,
				"userId": -1,
				"visible": 1,
				"zan": 0
			},
			{
				"adminAdd": false,
				"apkLink": "",
				"audit": 1,
				"author": "",
				"canEdit": false,
				"chapterId": 502,
				"chapterName": "自助",
				"collect": false,
				"courseId": 13,
				"desc": "",
				"descMd": "",
				"envelopePic": "",
				"fresh": false,
				"host": "",
				"id": 28472,
				"isAdminAdd": false,
				"link": "https://juejin.cn/post/7372503361361100850",
				"niceDate": "2024-05-27 10:44",
				"niceShareDate": "2024-05-27 10:44",
				"origin": "",
				"prefix": "",
				"projectLink": "",
				"publishTime": 1716777878000,
				"realSuperChapterId": 493,
				"selfVisible": 0,
				"shareDate": 1716777878000,
				"shareUser": "linversion",
				"superChapterId": 494,
				"superChapterName": "广场Tab",
				"tags": [],
				"title": "安卓开发者在<em class='highlight'>面试</em>中应该怎么回答协程挂起的原理",
				"type": 0,
				"userId": 70466,
				"visible": 1,
				"zan": 0
			},
			{
				"adminAdd": false,
				"apkLink": "",
				"audit": 1,
				"author": "",
				"canEdit": false,
				"chapterId": 502,
				"chapterName": "自助",
				"collect": false,
				"courseId": 13,
				"desc": "",
				"descMd": "",
				"envelopePic": "",
				"fresh": false,
				"host": "",
				"id": 28453,
				"isAdminAdd": false,
				"link": "https://juejin.cn/post/7371786399442419738",
				"niceDate": "2024-05-23 11:56",
				"niceShareDate": "2024-05-23 11:56",
				"origin": "",
				"prefix": "",
				"projectLink": "",
				"publishTime": 1716436604000,
				"realSuperChapterId": 493,
				"selfVisible": 0,
				"shareDate": 1716436604000,
				"shareUser": "图你怀中安稳",
				"superChapterId": 494,
				"superChapterName": "广场Tab",
				"tags": [],
				"title": "交互式学习Flutter知识点，轻松应对<em class='highlight'>面试</em>",
				"type": 0,
				"userId": 41223,
				"visible": 1,
				"zan": 0
			},
			{
				"adminAdd": false,
				"apkLink": "",
				"audit": 1,
				"author": "鸿洋",
				"canEdit": false,
				"chapterId": 408,
				"chapterName": "鸿洋",
				"collect": false,
				"courseId": 13,
				"desc": "",
				"descMd": "",
				"envelopePic": "",
				"fresh": false,
				"host": "",
				"id": 28447,
				"isAdminAdd": false,
				"link": "https://mp.weixin.qq.com/s/WAmDV9P16jch_BGdIk5nuQ",
				"niceDate": "2024-05-21 00:00",
				"niceShareDate": "2024-05-22 09:10",
				"origin": "",
				"prefix": "",
				"projectLink": "",
				"publishTime": 1716220800000,
				"realSuperChapterId": 407,
				"selfVisible": 0,
				"shareDate": 1716340235000,
				"shareUser": "",
				"superChapterId": 408,
				"superChapterName": "公众号",
				"tags": [
					{
						"name": "公众号",
						"url": "/wxarticle/list/408/1"
					}
				],
				"title": "RecyclerView<em class='highlight'>面试</em>宝典：7大高频问题解析",
				"type": 0,
				"userId": -1,
				"visible": 1,
				"zan": 0
			},
			{
				"adminAdd": false,
				"apkLink": "",
				"audit": 1,
				"author": "",
				"canEdit": false,
				"chapterId": 494,
				"chapterName": "广场",
				"collect": false,
				"courseId": 13,
				"desc": "",
				"descMd": "",
				"envelopePic": "",
				"fresh": false,
				"host": "",
				"id": 28309,
				"isAdminAdd": false,
				"link": "https://juejin.cn/post/7344571269555126335",
				"niceDate": "2024-04-22 08:23",
				"niceShareDate": "2024-04-22 08:23",
				"origin": "",
				"prefix": "",
				"projectLink": "",
				"publishTime": 1713745435000,
				"realSuperChapterId": 493,
				"selfVisible": 0,
				"shareDate": 1713745435000,
				"shareUser": "goweii",
				"superChapterId": 494,
				"superChapterName": "广场Tab",
				"tags": [],
				"title": "Jetpack-ViewModel（<em class='highlight'>面试</em>深度起来）",
				"type": 0,
				"userId": 20382,
				"visible": 0,
				"zan": 0
			},
			{
				"adminAdd": false,
				"apkLink": "",
				"audit": 1,
				"author": "鸿洋",
				"canEdit": false,
				"chapterId": 408,
				"chapterName": "鸿洋",
				"collect": false,
				"courseId": 13,
				"desc": "",
				"descMd": "",
				"envelopePic": "",
				"fresh": false,
				"host": "",
				"id": 28259,
				"isAdminAdd": false,
				"link": "https://mp.weixin.qq.com/s/1lFqwfDhedNAnMWz6Z9AzQ",
				"niceDate": "2024-04-03 00:00",
				"niceShareDate": "2024-04-09 09:23",
				"origin": "",
				"prefix": "",
				"projectLink": "",
				"publishTime": 1712073600000,
				"realSuperChapterId": 407,
				"selfVisible": 0,
				"shareDate": 1712625808000,
				"shareUser": "",
				"superChapterId": 408,
				"superChapterName": "公众号",
				"tags": [
					{
						"name": "公众号",
						"url": "/wxarticle/list/408/1"
					}
				],
				"title": "大揭秘，Android Flow<em class='highlight'>面试</em>官更爱问的7个问题",
				"type": 0,
				"userId": -1,
				"visible": 1,
				"zan": 0
			},
			{
				"adminAdd": false,
				"apkLink": "",
				"audit": 1,
				"author": "郭霖",
				"canEdit": false,
				"chapterId": 409,
				"chapterName": "郭霖",
				"collect": false,
				"courseId": 13,
				"desc": "",
				"descMd": "",
				"envelopePic": "",
				"fresh": false,
				"host": "",
				"id": 28263,
				"isAdminAdd": false,
				"link": "https://mp.weixin.qq.com/s/CmRlloTpjoG9l_X2kOiJbA",
				"niceDate": "2024-04-02 00:00",
				"niceShareDate": "2024-04-09 09:24",
				"origin": "",
				"prefix": "",
				"projectLink": "",
				"publishTime": 1711987200000,
				"realSuperChapterId": 407,
				"selfVisible": 0,
				"shareDate": 1712625875000,
				"shareUser": "",
				"superChapterId": 408,
				"superChapterName": "公众号",
				"tags": [
					{
						"name": "公众号",
						"url": "/wxarticle/list/409/1"
					}
				],
				"title": "LiveData原理<em class='highlight'>面试</em>一问还不懂？",
				"type": 0,
				"userId": -1,
				"visible": 1,
				"zan": 0
			},
			{
				"adminAdd": false,
				"apkLink": "",
				"audit": 1,
				"author": "",
				"canEdit": false,
				"chapterId": 502,
				"chapterName": "自助",
				"collect": false,
				"courseId": 13,
				"desc": "",
				"descMd": "",
				"envelopePic": "",
				"fresh": false,
				"host": "",
				"id": 28222,
				"isAdminAdd": false,
				"link": "https://juejin.cn/post/7352245958593724454",
				"niceDate": "2024-03-31 20:44",
				"niceShareDate": "2024-03-31 20:44",
				"origin": "",
				"prefix": "",
				"projectLink": "",
				"publishTime": 1711889058000,
				"realSuperChapterId": 493,
				"selfVisible": 0,
				"shareDate": 1711889058000,
				"shareUser": "Taonce",
				"superChapterId": 494,
				"superChapterName": "广场Tab",
				"tags": [],
				"title": "<em class='highlight'>面试</em>必问之 - ThreadLocal",
				"type": 0,
				"userId": 9695,
				"visible": 1,
				"zan": 0
			},
			{
				"adminAdd": false,
				"apkLink": "",
				"audit": 1,
				"author": "",
				"canEdit": false,
				"chapterId": 494,
				"chapterName": "广场",
				"collect": false,
				"courseId": 13,
				"desc": "",
				"descMd": "",
				"envelopePic": "",
				"fresh": false,
				"host": "",
				"id": 28179,
				"isAdminAdd": false,
				"link": "https://mp.weixin.qq.com/s/KC2ZfcazYBHwxcl1_-s3_A",
				"niceDate": "2024-03-20 09:56",
				"niceShareDate": "2024-03-20 09:56",
				"origin": "",
				"prefix": "",
				"projectLink": "",
				"publishTime": 1710899793000,
				"realSuperChapterId": 493,
				"selfVisible": 0,
				"shareDate": 1710899793000,
				"shareUser": "小憨家",
				"superChapterId": 494,
				"superChapterName": "广场Tab",
				"tags": [],
				"title": "Android<em class='highlight'>面试</em>官爱问的自定义View的问题",
				"type": 0,
				"userId": 159783,
				"visible": 0,
				"zan": 0
			},
			{
				"adminAdd": false,
				"apkLink": "",
				"audit": 1,
				"author": "鸿洋",
				"canEdit": false,
				"chapterId": 408,
				"chapterName": "鸿洋",
				"collect": false,
				"courseId": 13,
				"desc": "",
				"descMd": "",
				"envelopePic": "",
				"fresh": false,
				"host": "",
				"id": 28019,
				"isAdminAdd": false,
				"link": "https://mp.weixin.qq.com/s/dhi5kkoRMHeGVyxmgPIbMw",
				"niceDate": "2024-02-21 00:00",
				"niceShareDate": "2024-02-22 09:31",
				"origin": "",
				"prefix": "",
				"projectLink": "",
				"publishTime": 1708444800000,
				"realSuperChapterId": 407,
				"selfVisible": 0,
				"shareDate": 1708565501000,
				"shareUser": "",
				"superChapterId": 408,
				"superChapterName": "公众号",
				"tags": [
					{
						"name": "公众号",
						"url": "/wxarticle/list/408/1"
					}
				],
				"title": "掌握这10个Android LaunchMode问题，<em class='highlight'>面试</em>轻松搞定",
				"type": 0,
				"userId": -1,
				"visible": 1,
				"zan": 0
			},
			{
				"adminAdd": false,
				"apkLink": "",
				"audit": 1,
				"author": "",
				"canEdit": false,
				"chapterId": 502,
				"chapterName": "自助",
				"collect": false,
				"courseId": 13,
				"desc": "",
				"descMd": "",
				"envelopePic": "",
				"fresh": false,
				"host": "",
				"id": 28006,
				"isAdminAdd": false,
				"link": "https://juejin.cn/post/7332656641819672639",
				"niceDate": "2024-02-18 21:48",
				"niceShareDate": "2024-02-18 21:46",
				"origin": "",
				"prefix": "",
				"projectLink": "",
				"publishTime": 1708264111000,
				"realSuperChapterId": 493,
				"selfVisible": 0,
				"shareDate": 1708264002000,
				"shareUser": "鸿洋",
				"superChapterId": 494,
				"superChapterName": "广场Tab",
				"tags": [],
				"title": "如何应对Android<em class='highlight'>面试</em>官-&gt;实战高级UI，用自定义View画一条锦鲤(上)",
				"type": 0,
				"userId": 2,
				"visible": 1,
				"zan": 0
			},
			{
				"adminAdd": false,
				"apkLink": "",
				"audit": 1,
				"author": "鸿洋",
				"canEdit": false,
				"chapterId": 408,
				"chapterName": "鸿洋",
				"collect": false,
				"courseId": 13,
				"desc": "",
				"descMd": "",
				"envelopePic": "",
				"fresh": false,
				"host": "",
				"id": 27948,
				"isAdminAdd": false,
				"link": "https://mp.weixin.qq.com/s/mdoUpAct1p_NQkNp6gpUaQ",
				"niceDate": "2024-01-25 00:00",
				"niceShareDate": "2024-01-29 09:41",
				"origin": "",
				"prefix": "",
				"projectLink": "",
				"publishTime": 1706112000000,
				"realSuperChapterId": 407,
				"selfVisible": 0,
				"shareDate": 1706492478000,
				"shareUser": "",
				"superChapterId": 408,
				"superChapterName": "公众号",
				"tags": [
					{
						"name": "公众号",
						"url": "/wxarticle/list/408/1"
					}
				],
				"title": "360度无死角，Android Jetpack<em class='highlight'>面试</em>技巧大揭秘",
				"type": 0,
				"userId": -1,
				"visible": 1,
				"zan": 0
			}
		],
		"offset": 0,
		"over": false,
		"pageCount": 30,
		"size": 20,
		"total": 584
	},
	"errorCode": 0,
	"errorMsg": ""
}